<svg xmlns="http://www.w3.org/2000/svg">
    <symbol id="ico-arrow-down" viewBox="0 0 16 8">
        <path fill-rule="evenodd" d="M15.989,2.099 L8.261,7.988 L8.000,7.734 L7.738,7.988 L0.011,2.099 L2.166,0.010 L8.000,4.456 L13.834,0.010 L15.989,2.099 Z"/>
    </symbol>
</svg>